# generating random returns

    Code
      returns
    Output
      # A tibble: 100,000 x 2
         GlobalStock EDOBonds
               <dbl>    <dbl>
       1     -0.136      0.02
       2      0.0865     0.02
       3      0.208      0.02
       4     -0.307      0.02
       5      0.109      0.02
       6      0.121      0.02
       7     -0.0413     0.02
       8     -0.0371     0.02
       9     -0.0398     0.02
      10     -0.0886     0.02
      # i 99,990 more rows
